…
Questions answering some of the data

``` r
distinct(nyc_transit, station_name)
```

    ## # A tibble: 356 × 1
    ##    station_name            
    ##    <chr>                   
    ##  1 25th St                 
    ##  2 36th St                 
    ##  3 45th St                 
    ##  4 53rd St                 
    ##  5 59th St                 
    ##  6 77th St                 
    ##  7 86th St                 
    ##  8 95th St                 
    ##  9 9th St                  
    ## 10 Atlantic Av-Barclays Ctr
    ## # ℹ 346 more rows

``` r
ada_compliant = nyc_transit %>% 
  filter(ada == TRUE)
distinct(ada_compliant, station_name)
```

    ## # A tibble: 73 × 1
    ##    station_name                  
    ##    <chr>                         
    ##  1 Atlantic Av-Barclays Ctr      
    ##  2 DeKalb Av                     
    ##  3 Pacific St                    
    ##  4 Grand Central                 
    ##  5 34th St                       
    ##  6 47-50th Sts Rockefeller Center
    ##  7 Church Av                     
    ##  8 21st St                       
    ##  9 Lexington Av                  
    ## 10 Roosevelt Island              
    ## # ℹ 63 more rows
…
